…
## See also

[`flytable_cell_types`](https://natverse.org/fafbseg/reference/flytable_cell_types.md)

## Examples

``` r
# \donttest{
kcin=flywire_partner_summary("720575940626474889", partners = 'in',
  cleft.threshold = 50)
kcin
#> # A tibble: 103 × 3
#>    query              pre_id             weight
#>    <chr>              <chr>               <int>
#>  1 720575940626474889 720575940640891763     29
#>  2 720575940626474889 720575940613583001     28
#>  3 720575940626474889 720575940632698797     26
#>  4 720575940626474889 720575940615834258     25
#>  5 720575940626474889 720575940607687260     19
#>  6 720575940626474889 720575940642086389     14
#>  7 720575940626474889 720575940622673703      8
#>  8 720575940626474889 720575940620709681      6
#>  9 720575940626474889 720575940621178206      6
#> 10 720575940626474889 720575940619665023      5
#> # ℹ 93 more rows
kcin2=add_celltype_info(kcin)
kcin2
#> # A tibble: 103 × 15
#>    query          pre_id weight supervoxel_id side  flow  super_class cell_class
#>    <chr>          <chr>   <int> <chr>         <chr> <chr> <chr>       <chr>     
#>  1 7205759406264… 72057…     29 807870292352… right intr… central     ALPN      
#>  2 7205759406264… 72057…     28 813486739212… right intr… central     MBIN      
#>  3 7205759406264… 72057…     26 803649542764… right intr… central     ALPN      
#>  4 7205759406264… 72057…     25 802240106295… right intr… central     ALPN      
#>  5 7205759406264… 72057…     19 802240792818… right intr… central     ALPN      
#>  6 7205759406264… 72057…     14 804353917399… right intr… central     ALPN      
#>  7 7205759406264… 72057…      8 816302178184… right intr… central     Kenyon_Ce…
#>  8 7205759406264… 72057…      6 813494986893… right intr… central     NA        
#>  9 7205759406264… 72057…      6 812080052867… right intr… central     Kenyon_Ce…
#> 10 7205759406264… 72057…      5 814192490249… right intr… central     Kenyon_Ce…
#> # ℹ 93 more rows
#> # ℹ 7 more variables: cell_sub_class <chr>, cell_type <chr>, top_nt <chr>,
#> #   ito_lee_hemilineage <chr>, hemibrain_type <chr>, malecns_type <chr>,
#> #   fbbt_id <chr>
…
