Find the input/output partners for a flywire neuron — flywire_partners • fafbseg
…
# summary for neuron at a XYZ location (in this case in raw coordinates)
flywire_partner_summary(flywire_xyz2id(cbind(155682, 58180, 3215),
  rawcoords = TRUE))
#> # A tibble: 1,213 × 3
#>    query              post_id            weight
#>    <chr>              <chr>               <int>
#>  1 720575940623607372 720575940639232858    172
#>  2 720575940623607372 720575940622838154     62
#>  3 720575940623607372 720575940631200327     62
#>  4 720575940623607372 720575940631914700     34
#>  5 720575940623607372 720575940628412732     31
#>  6 720575940623607372 720575940619553671     30
#>  7 720575940623607372 720575940621000831     29
#>  8 720575940623607372 720575940611428761     27
#>  9 720575940623607372 720575940624743946     27
#> 10 720575940623607372 720575940650971257     27
#> # ℹ 1,203 more rows
…
