Add flytable cell type information to a dataframe with flywire ids — add_celltype_info • fafbseg
…
    See also

    flytable_cell_types

    Examples

# \donttest{
kcin=flywire_partner_summary("720575940626474889", partners = 'in',
  cleft.threshold = 50)
#> Fetching supervoxel ids for id: 720575940626474889
#> Finding synapses for supervoxels
#> Finding additional details for synapses
#> Fetching root ids
kcin
#> # A tibble: 103 × 3
#>    pre_id             weight     n
#>    <chr>               <int> <int>
#>  1 720575940630547909     29     1
#>  2 720575940621280688     28     1
#>  3 720575940632698797     26     1
#>  4 720575940637628762     25     1
#>  5 720575940607687260     19     1
#>  6 720575940625081895     14     1
#>  7 720575940622673703      8     1
#>  8 720575940614137809      6     1
#>  9 720575940621178206      6     1
#> 10 720575940619665023      5     1
#> # … with 93 more rows
kcin2=add_celltype_info(kcin)
kcin2
#> # A tibble: 103 × 11
#>    pre_id     weight     n super…¹ side  cell_…² cell_…³ ito_l…⁴ hemib…⁵ hemib…⁶
#>    <chr>       <int> <int> <chr>   <chr> <chr>   <chr>   <chr>   <chr>   <chr>  
#>  1 720575940…     29     1 807870… left  ALPN    VA1d_a… ALad1   VA1d_a… NA     
#>  2 720575940…     28     1 813486… left  MBIN    APL     NA      APL     NA     
#>  3 720575940…     26     1 803649… left  ALPN    VM6_ad… ALad1   VC5_ad… NA     
#>  4 720575940…     25     1 802240… left  ALPN    DM2_lPN ALl1_d… DM2_lPN NA     
#>  5 720575940…     19     1 802240… left  ALPN    VM2_ad… ALad1   VM2_ad… NA     
#>  6 720575940…     14     1 804353… left  ALPN    VA4_lPN ALl1_d… VA4_lPN NA     
#>  7 720575940…      8     1 816302… left  Kenyon… KCab    MBp2    KCab-s  NA     
#>  8 720575940…      6     1 813494… left  NA      LHPV12… NA      LHPV12… NA     
#>  9 720575940…      6     1 812080… left  Kenyon… KCab    MBp2    KCab-s  NA     
#> 10 720575940…      5     1 814192… left  Kenyon… KCab    MBp2    KCab-s  NA     
#> # … with 93 more rows, 1 more variable: vfb_id <chr>, and abbreviated variable
#> #   names ¹​supervoxel_id, ²​cell_class, ³​cell_type, ⁴​ito_lee_hemilineage,
#> #   ⁵​hemibrain_type, ⁶​hemibrain_match
…
