Find the input/output partners for a flywire neuron — flywire_partners • fafbseg
…
#> [1] "integer64"
# }
# \donttest{
# Note that post_id is of type character
flywire_partner_summary("720575940621039145", partners='out')

#> Fetching supervoxel ids for id: 720575940621039145
#> Finding synapses for supervoxels
#> Fetching root ids
#> # A tibble: 1,241 × 3
#>    post_id            weight     n
#>    <chr>               <int> <int>
#>  1 720575940618522433    172     1
#>  2 720575940623301520     62     1
#>  3 720575940637390424     62     1
#>  4 720575940622541972     34     1
#>  5 720575940628412732     31     1
#>  6 720575940620466824     30     1
#>  7 720575940619767284     29     1
#>  8 720575940617035422     27     1
#>  9 720575940620082782     27     1
#> 10 720575940624743946     27     1
#> # … with 1,231 more rows
flywire_partner_summary("720575940621039145", partners='in')

#> Fetching supervoxel ids for id: 720575940621039145
#> Finding synapses for supervoxels
#> Fetching root ids
#> # A tibble: 656 × 3
#>    pre_id             weight     n
#>    <chr>               <int> <int>
#>  1 720575940613380914     90     1
#>  2 720575940612854678     88     1
#>  3 720575940619767284     77     1
#>  4 720575940618914669     74     1
#>  5 720575940637390424     69     1
#>  6 720575940637608792     60     1
#>  7 720575940620803533     57     1
#>  8 720575940617046139     56     1
#>  9 720575940619059120     56     1
#> 10 720575940612001489     51     1
#> # … with 646 more rows
flywire_partner_summary("720575940621039145")

#> Fetching supervoxel ids for id: 720575940621039145
#> Finding synapses for supervoxels
#> Fetching root ids
#> # A tibble: 1,241 × 3
#>    post_id            weight     n
#>    <chr>               <int> <int>
#>  1 720575940618522433    172     1
#>  2 720575940623301520     62     1
#>  3 720575940637390424     62     1
#>  4 720575940622541972     34     1
#>  5 720575940628412732     31     1
#>  6 720575940620466824     30     1
#>  7 720575940619767284     29     1
#>  8 720575940617035422     27     1
#>  9 720575940620082782     27     1
#> 10 720575940624743946     27     1
#> # … with 1,231 more rows

# summary for neuron at a XYZ location (in this case in raw coordinates)
flywire_partner_summary(flywire_xyz2id(cbind(155682, 58180, 3215),
  rawcoords = TRUE))

#> Fetching supervoxel ids for id: 720575940621039145
#> Finding synapses for supervoxels
#> Fetching root ids
#> # A tibble: 1,241 × 3
#>    post_id            weight     n
#>    <chr>               <int> <int>
#>  1 720575940618522433    172     1
#>  2 720575940623301520     62     1
#>  3 720575940637390424     62     1
#>  4 720575940622541972     34     1
#>  5 720575940628412732     31     1
#>  6 720575940620466824     30     1
#>  7 720575940619767284     29     1
#>  8 720575940617035422     27     1
#>  9 720575940620082782     27     1
#> 10 720575940624743946     27     1
#> # … with 1,231 more rows
…
